7.3 Ordinal Logistic Regression | My Data Science Notes
…
G <- -2 * (logLik(pom)[1] - logLik(mlm)[1])
pchisq(G, df = length(pom$zeta) - 1, lower.tail = FALSE)

## [1] 0.3

The p-value is high, so do not reject the null hypothesis that the proportional odds model fits differently than the more complex multinomial logit model.

7.3.3 Case Study

The General Social Survey for year 1972, 1973, and 1974 surveyed caucasian Christians about their attitudes att toward abortion. Respondents were classified by years of education edu and religious group att.

abort %>% pivot_wider(names_from = att, values_from = cnt) 

## # A tibble: 27 x 6
##    year  rel   edu     Neg   Mix   Pos
##    <fct> <fct> <fct> <dbl> <dbl> <dbl>
##  1 1972  Prot  Low       9    12    48
##  2 1972  Prot  Med      13    43   197
##  3 1972  Prot  High      4     9   139
##  4 1972  SProt Low       9    17    30
##  5 1972  SProt Med       6    10    97
##  6 1972  SProt High      1     8    68
##  7 1972  Cath  Low      14    12    32
##  8 1972  Cath  Med      18    50   131
##  9 1972  Cath  High      8    13    64
## 10 1973  Prot  Low       4    16    59
## # ... with 17 more rows
…
